\relax 
\providecommand\hyper@newdestlabel[2]{}
\providecommand\HyperFirstAtBeginDocument{\AtBeginDocument}
\HyperFirstAtBeginDocument{\ifx\hyper@anchor\@undefined
\global\let\oldcontentsline\contentsline
\gdef\contentsline#1#2#3#4{\oldcontentsline{#1}{#2}{#3}}
\global\let\oldnewlabel\newlabel
\gdef\newlabel#1#2{\newlabelxx{#1}#2}
\gdef\newlabelxx#1#2#3#4#5#6{\oldnewlabel{#1}{{#2}{#3}}}
\AtEndDocument{\ifx\hyper@anchor\@undefined
\let\contentsline\oldcontentsline
\let\newlabel\oldnewlabel
\fi}
\fi}
\global\let\hyper@last\relax 
\gdef\HyperFirstAtBeginDocument#1{#1}
\providecommand\HyField@AuxAddToFields[1]{}
\providecommand\HyField@AuxAddToCoFields[2]{}
\select@language{english}
\@writefile{toc}{\select@language{english}}
\@writefile{lof}{\select@language{english}}
\@writefile{lot}{\select@language{english}}
\citation{nieselt}
\citation{hmmlogo}
\citation{hmmeditor}
\citation{hmmer}
\citation{pfam}
\citation{php}
\citation{js}
\citation{threejs}
\citation{jquery}
\@writefile{toc}{\contentsline {section}{\numberline {1}Introduction}{2}{section.0.1}}
\@writefile{toc}{\contentsline {section}{\numberline {2}Methods}{2}{section.0.2}}
\@writefile{toc}{\contentsline {subsection}{\numberline {2.1}Hidden Markov Models}{2}{subsection.0.2.1}}
\@writefile{toc}{\contentsline {subsection}{\numberline {2.2}Motivation - Look on other tools}{2}{subsection.0.2.2}}
\citation{php}
\citation{js}
\@writefile{toc}{\contentsline {section}{\numberline {3}Approach and Results}{3}{section.0.3}}
\@writefile{toc}{\contentsline {subsection}{\numberline {3.1}Overview}{3}{subsection.0.3.1}}
\@writefile{lof}{\contentsline {figure}{\numberline {1}{\ignorespaces Overview of the steps performed by the web-server to create the website\relax }}{3}{figure.0.1}}
\@writefile{toc}{\contentsline {subsection}{\numberline {3.2}Reading the data}{3}{subsection.0.3.2}}
\@writefile{toc}{\contentsline {subsection}{\numberline {3.3}Display of the data}{3}{subsection.0.3.3}}
\@writefile{toc}{\contentsline {subsubsection}{3D View}{3}{section*.2}}
\@writefile{lof}{\contentsline {figure}{\numberline {2}{\ignorespaces The 3D view of the HMM Viewer (standard view and settings)\relax }}{3}{figure.0.2}}
\citation{brewer}
\citation{colors}
\@writefile{lof}{\contentsline {figure}{\numberline {3}{\ignorespaces \relax \fontsize  {8}{9.5}\selectfont  \abovedisplayskip 6\p@ plus2\p@ minus4\p@ \abovedisplayshortskip \z@ plus\p@ \belowdisplayshortskip 3\p@ plus\p@ minus2\p@ \def \leftmargin \leftmargini \parsep 4\p@ plus2\p@ minus\p@ \topsep 8\p@ plus2\p@ minus4\p@ \itemsep 4\p@ plus2\p@ minus\p@ {\leftmargin \leftmargini \topsep 3\p@ plus\p@ minus\p@ \parsep 2\p@ plus\p@ minus\p@ \itemsep \parsep }\belowdisplayskip \abovedisplayskip The pop-up with the detailed information\relax }}{4}{figure.caption.3}}
\@writefile{toc}{\contentsline {subsubsection}{Movement}{4}{section*.4}}
\@writefile{toc}{\contentsline {subsubsection}{Coloring}{4}{section*.5}}
\@writefile{toc}{\contentsline {subsubsection}{Settings}{5}{section*.6}}
\@writefile{lof}{\contentsline {figure}{\numberline {4}{\ignorespaces Overview of the steps performed by the web-server to create the website\relax }}{5}{figure.0.4}}
\newlabel{fig:settings}{{4}{5}{Overview of the steps performed by the web-server to create the website\relax }{figure.0.4}{}}
\@writefile{toc}{\contentsline {subsubsection}{Amino acid table}{5}{section*.7}}
\@writefile{toc}{\contentsline {subsubsection}{Bookmarking}{6}{section*.8}}
\@writefile{toc}{\contentsline {subsection}{\numberline {3.4}Index page}{6}{subsection.0.3.4}}
\@writefile{toc}{\contentsline {subsubsection}{File-chooser}{6}{section*.9}}
\@writefile{toc}{\contentsline {subsubsection}{Import from Pfam}{6}{section*.10}}
\@writefile{toc}{\contentsline {subsubsection}{File upload}{6}{section*.11}}
\@writefile{toc}{\contentsline {subsubsection}{Help page}{6}{section*.12}}
\@writefile{toc}{\contentsline {section}{\numberline {4}Discussion}{6}{section.0.4}}
\@writefile{toc}{\contentsline {subsection}{\numberline {4.1}Settings}{6}{subsection.0.4.1}}
\@writefile{toc}{\contentsline {subsection}{\numberline {4.2}Bookmarking}{6}{subsection.0.4.2}}
\@writefile{toc}{\contentsline {subsection}{\numberline {4.3}Save to file}{6}{subsection.0.4.3}}
\@writefile{toc}{\contentsline {subsection}{\numberline {4.4}Evaluation - Comparing to other tools}{7}{subsection.0.4.4}}
\@writefile{lof}{\contentsline {figure}{\numberline {5}{\ignorespaces Visualization of HMMLogo for EGF HMM file.\relax }}{7}{figure.0.5}}
\newlabel{fig:egf}{{5}{7}{Visualization of HMMLogo for EGF HMM file.\relax }{figure.0.5}{}}
\@writefile{lof}{\contentsline {figure}{\numberline {6}{\ignorespaces Visualization of HMM Viewer for EGF HMM file up to position 12.\relax }}{7}{figure.0.6}}
\newlabel{fig:egf2}{{6}{7}{Visualization of HMM Viewer for EGF HMM file up to position 12.\relax }{figure.0.6}{}}
\@writefile{lof}{\contentsline {figure}{\numberline {7}{\ignorespaces Visualization of HMM Viewer from MORN repeat in top view.\relax }}{7}{figure.0.7}}
\newlabel{fig:top}{{7}{7}{Visualization of HMM Viewer from MORN repeat in top view.\relax }{figure.0.7}{}}
\@writefile{lof}{\contentsline {figure}{\numberline {8}{\ignorespaces Visualization of HMMLogo for Sel1 HMM file.\relax }}{8}{figure.0.8}}
\newlabel{fig:sel}{{8}{8}{Visualization of HMMLogo for Sel1 HMM file.\relax }{figure.0.8}{}}
\@writefile{lof}{\contentsline {figure}{\numberline {9}{\ignorespaces Visualization of HMM Viewer for Sel1 HMM file, starting at position 7.\relax }}{8}{figure.0.9}}
\newlabel{fig:sel2}{{9}{8}{Visualization of HMM Viewer for Sel1 HMM file, starting at position 7.\relax }{figure.0.9}{}}
\@writefile{toc}{\contentsline {subsection}{\numberline {4.5}Outlook}{8}{subsection.0.4.5}}
\@writefile{toc}{\contentsline {subsubsection}{Full-screen mode}{8}{section*.13}}
\@writefile{toc}{\contentsline {subsubsection}{Save/restore camera}{8}{section*.14}}
\citation{texshade}
\bibstyle{unsrt}
\bibdata{report}
\@writefile{toc}{\contentsline {subsubsection}{Save as picture}{9}{section*.15}}
\@writefile{toc}{\contentsline {subsubsection}{More color schemes}{9}{section*.16}}
\@writefile{toc}{\contentsline {section}{\numberline {5}Supplementary}{9}{section.0.5}}
\bibcite{nieselt}{1}
\bibcite{hmmlogo}{2}
\bibcite{hmmeditor}{3}
\bibcite{hmmer}{4}
\bibcite{pfam}{5}
\bibcite{php}{6}
\bibcite{js}{7}
\bibcite{threejs}{8}
\bibcite{jquery}{9}
\bibcite{brewer}{10}
\bibcite{colors}{11}
\bibcite{texshade}{12}
\newlabel{LastPage}{{}{10}{}{page.10}{}}
\xdef\lastpage@lastpage{10}
\xdef\lastpage@lastpageHy{10}
