\relax 
\providecommand\hyper@newdestlabel[2]{}
\providecommand\HyperFirstAtBeginDocument{\AtBeginDocument}
\HyperFirstAtBeginDocument{\ifx\hyper@anchor\@undefined
\global\let\oldcontentsline\contentsline
\gdef\contentsline#1#2#3#4{\oldcontentsline{#1}{#2}{#3}}
\global\let\oldnewlabel\newlabel
\gdef\newlabel#1#2{\newlabelxx{#1}#2}
\gdef\newlabelxx#1#2#3#4#5#6{\oldnewlabel{#1}{{#2}{#3}}}
\AtEndDocument{\ifx\hyper@anchor\@undefined
\let\contentsline\oldcontentsline
\let\newlabel\oldnewlabel
\fi}
\fi}
\global\let\hyper@last\relax 
\gdef\HyperFirstAtBeginDocument#1{#1}
\providecommand\HyField@AuxAddToFields[1]{}
\providecommand\HyField@AuxAddToCoFields[2]{}
\select@language{english}
\@writefile{toc}{\select@language{english}}
\@writefile{lof}{\select@language{english}}
\@writefile{lot}{\select@language{english}}
\@writefile{toc}{\contentsline {section}{\numberline {1}Instructions}{2}{section.0.1}}
\@writefile{toc}{\contentsline {section}{\numberline {2}Index page}{2}{section.0.2}}
\@writefile{toc}{\contentsline {subsection}{\numberline {2.1}File-chooser}{2}{subsection.0.2.1}}
\@writefile{toc}{\contentsline {subsection}{\numberline {2.2}Import from Pfam}{2}{subsection.0.2.2}}
\@writefile{toc}{\contentsline {subsubsection}{How it works}{2}{section*.2}}
\@writefile{toc}{\contentsline {subsection}{\numberline {2.3}Upload page}{2}{subsection.0.2.3}}
\@writefile{toc}{\contentsline {section}{\numberline {3}Display of data}{2}{section.0.3}}
\@writefile{toc}{\contentsline {subsection}{\numberline {3.1}Movement}{2}{subsection.0.3.1}}
\@writefile{toc}{\contentsline {subsection}{\numberline {3.2}3D View}{2}{subsection.0.3.2}}
\@writefile{toc}{\contentsline {subsection}{\numberline {3.3}Coloring schemes}{3}{subsection.0.3.3}}
\@writefile{lot}{\contentsline {table}{\numberline {1}{\ignorespaces Group coloring\relax }}{3}{table.0.1}}
\@writefile{lot}{\contentsline {table}{\numberline {2}{\ignorespaces Single coloring\relax }}{4}{table.0.2}}
\@writefile{toc}{\contentsline {subsection}{\numberline {3.4}Settings}{4}{subsection.0.3.4}}
\@writefile{toc}{\contentsline {subsubsection}{Amino acid settings:}{4}{section*.3}}
\@writefile{toc}{\contentsline {subsubsection}{Insert/Deletestate options:}{4}{section*.4}}
\@writefile{toc}{\contentsline {subsubsection}{Colorings:}{4}{section*.5}}
\@writefile{toc}{\contentsline {subsubsection}{Additional features:}{4}{section*.6}}
\@writefile{toc}{\contentsline {subsection}{\numberline {3.5}Amino acid table}{5}{subsection.0.3.5}}
\@writefile{toc}{\contentsline {subsection}{\numberline {3.6}Bookmarking}{5}{subsection.0.3.6}}
\@writefile{toc}{\contentsline {section}{\numberline {4}FAQ}{5}{section.0.4}}
\newlabel{sec:faq}{{4}{5}{FAQ}{section.0.4}{}}
\@writefile{toc}{\contentsline {section}{\numberline {5}Supplementary}{6}{section.0.5}}
\@writefile{toc}{\contentsline {subsection}{\numberline {5.1}About}{6}{subsection.0.5.1}}
\@writefile{toc}{\contentsline {subsection}{\numberline {5.2}Terms of use}{6}{subsection.0.5.2}}
\newlabel{LastPage}{{}{6}{}{page.6}{}}
\xdef\lastpage@lastpage{6}
\xdef\lastpage@lastpageHy{6}
